{
    "type": "application",
    "source-directories": [
        "src",
        "../../src",
        "../../elm-style-framework/src"
    ],
    "elm-version": "0.19.0",
    "dependencies": {
        "direct": {
            "elm/browser": "1.0.1",
            "elm/core": "1.0.0",
            "elm/html": "1.0.0",
            "elm/json": "1.0.0",
            "elm/svg": "1.0.1",
            "mdgriffith/elm-ui": "1.1.0"
        },
        "indirect": {
            "elm/time": "1.0.0",
            "elm/url": "1.0.0",
            "elm/virtual-dom": "1.0.2"
        }
    },
    "test-dependencies": {
        "direct": {},
        "indirect": {}
    }
}
